LABEL
1X1100004990010L780002
1X1100004080010L780002                      
1X1100000940010L780002
1X1100004090532L002045                      
1X1100000060398L002286                      
1X1100004090398L002148                     
1X1100002330400L393002                      
1X1100001480400L393002                      
1X1100001730006L393002
1X1100004520400L393002                      
1X1100004090666L002044
1X1100000960605L002054
1X1100002910010L780002
1911S0005150085P022P024VIMS
1911S0004800010P011P009CASE REFERENCE
1911S0003900010P011P009PART NO.(P)
1911S0002700010P011P009QUANTITY(Q)
1911S0001550010P011P009SUPPLIER(V)
1911S0000750010P011P009SERIAL(S)
1911S0001320405P011P009DATE
1911S0002750405P011P009DESCRIPTION
1911S0000750405P011P009WEIGHT(KG)
1911S0005150430P022P024FLD01
1911S0004690144P022P018FLD03                       
1911S0003580145P043P036FLD05
1911S0002370112P043P036FLD06
1911S0000600130P018P018FLD12
1911S0002440405P025P024FLD16
1911S0004580405P020P015FLD17
1911S0000600405P020P015FLD18
1911S0000340405P025P024FLD19
1aC405004150050FLD03
1aK806002950052PFLD05
1aK805501780050QFLD06
1aC404500990050VFLD07
1aC404500050050SFLD12